{
    "name": "Web SDK",
	"build": {
		"dockerfile": "Dockerfile",
		// Update 'VARIANT' to pick a Node version: 12, 14, 16
		"args": {
			"VARIANT": "16",
		}
	},

    "runArgs": [
        "--network=intnet",
    ],

	// Set *default* container specific settings.json values on container create.
	"settings": {},


	// Add the IDs of extensions you want installed when the container is created.
	"extensions": [
		"dbaeumer.vscode-eslint",
		"octref.vetur",
		"streetsidesoftware.code-spell-checker"
	],

    "postCreateCommand": "npm install",
    // "postStartCommand": "cp -f .env.devcontainer .env",

    "remoteUser": "node"
}
